// Jest Snapshot v1, https://goo.gl/fbAQLP

exports[`EE - CorpusManagement - EmptyState should render correct content 1`] = `
<section
  class="gl-display-flex gl-empty-state gl-flex-direction-column gl-text-center"
>
  <div
    class="gl-max-w-full"
  >
    <div>
      <img
        alt=""
        class="gl-dark-invert-keep-hue gl-max-w-full"
        role="img"
        src="/illustrations/no_commits.svg"
      />
    </div>
  </div>
  <div
    class="gl-m-auto gl-max-w-88"
    data-testid="gl-empty-state-content"
  >
    <div
      class="gl-mx-auto gl-my-0 gl-p-5"
    >
      <h1
        class="gl-font-size-h-display gl-line-height-36 gl-mb-0 gl-mt-0 h4"
      >
        Manage your fuzz testing corpus files
      </h1>
      <p
        class="gl-mb-0 gl-mt-4"
      >
        <gl-sprintf-stub
          message="A corpus is used by fuzz testing to improve coverage. Corpus files can be manually created or auto-generated. %{linkStart}Learn more%{linkEnd}"
        />
      </p>
      <div
        class="gl-display-flex gl-flex-wrap gl-justify-content-center gl-mt-5"
      >
        <button>
          Perform action
        </button>
      </div>
    </div>
  </div>
</section>
`;
